^C:\USERS\BEN\DOCUMENTS\BENJAMIN_GRAY_SET09117\CHECKERS V1.4\CHECKERS_V1.4\CHECKERS_V1.4\STDAFX.CPP
C:\USERS\BEN\DOCUMENTS\BENJAMIN_GRAY_SET09117\CHECKERS V1.4\CHECKERS_V1.4\CHECKERS_V1.4\X64\RELEASE\CHECKERS_V1.4.PCH
C:\USERS\BEN\DOCUMENTS\BENJAMIN_GRAY_SET09117\CHECKERS V1.4\CHECKERS_V1.4\CHECKERS_V1.4\X64\RELEASE\VC141.PDB
C:\USERS\BEN\DOCUMENTS\BENJAMIN_GRAY_SET09117\CHECKERS V1.4\CHECKERS_V1.4\CHECKERS_V1.4\X64\RELEASE\STDAFX.OBJ
^C:\USERS\BEN\DOCUMENTS\BENJAMIN_GRAY_SET09117\CHECKERS V1.4\CHECKERS_V1.4\CHECKERS_V1.4\CHECKERSBOARD.CPP|C:\USERS\BEN\DOCUMENTS\BENJAMIN_GRAY_SET09117\CHECKERS V1.4\CHECKERS_V1.4\CHECKERS_V1.4\CHECKERSVARS.CPP|C:\USERS\BEN\DOCUMENTS\BENJAMIN_GRAY_SET09117\CHECKERS V1.4\CHECKERS_V1.4\CHECKERS_V1.4\ERROR.CPP|C:\USERS\BEN\DOCUMENTS\BENJAMIN_GRAY_SET09117\CHECKERS V1.4\CHECKERS_V1.4\CHECKERS_V1.4\FUNCTIONS.CPP|C:\USERS\BEN\DOCUMENTS\BENJAMIN_GRAY_SET09117\CHECKERS V1.4\CHECKERS_V1.4\CHECKERS_V1.4\MAIN.CPP|C:\USERS\BEN\DOCUMENTS\BENJAMIN_GRAY_SET09117\CHECKERS V1.4\CHECKERS_V1.4\CHECKERS_V1.4\SQUARE.CPP
C:\USERS\BEN\DOCUMENTS\BENJAMIN_GRAY_SET09117\CHECKERS V1.4\CHECKERS_V1.4\CHECKERS_V1.4\X64\RELEASE\VC141.PDB
C:\USERS\BEN\DOCUMENTS\BENJAMIN_GRAY_SET09117\CHECKERS V1.4\CHECKERS_V1.4\CHECKERS_V1.4\X64\RELEASE\SQUARE.OBJ
C:\USERS\BEN\DOCUMENTS\BENJAMIN_GRAY_SET09117\CHECKERS V1.4\CHECKERS_V1.4\CHECKERS_V1.4\X64\RELEASE\FUNCTIONS.OBJ
C:\USERS\BEN\DOCUMENTS\BENJAMIN_GRAY_SET09117\CHECKERS V1.4\CHECKERS_V1.4\CHECKERS_V1.4\X64\RELEASE\ERROR.OBJ
C:\USERS\BEN\DOCUMENTS\BENJAMIN_GRAY_SET09117\CHECKERS V1.4\CHECKERS_V1.4\CHECKERS_V1.4\X64\RELEASE\CHECKERSVARS.OBJ
C:\USERS\BEN\DOCUMENTS\BENJAMIN_GRAY_SET09117\CHECKERS V1.4\CHECKERS_V1.4\CHECKERS_V1.4\X64\RELEASE\MAIN.OBJ
C:\USERS\BEN\DOCUMENTS\BENJAMIN_GRAY_SET09117\CHECKERS V1.4\CHECKERS_V1.4\CHECKERS_V1.4\X64\RELEASE\CHECKERSBOARD.OBJ
^C:\USERS\BEN\DOCUMENTS\BENJAMIN_GRAY_SET09117\CHECKERS V1.4\CHECKERS_V1.4\CHECKERS_V1.4\CHECKERSBOARD.CPP
C:\USERS\BEN\DOCUMENTS\BENJAMIN_GRAY_SET09117\CHECKERS V1.4\CHECKERS_V1.4\CHECKERS_V1.4\X64\RELEASE\VC141.PDB
^C:\USERS\BEN\DOCUMENTS\BENJAMIN_GRAY_SET09117\CHECKERS V1.4\CHECKERS_V1.4\CHECKERS_V1.4\MAIN.CPP
C:\USERS\BEN\DOCUMENTS\BENJAMIN_GRAY_SET09117\CHECKERS V1.4\CHECKERS_V1.4\CHECKERS_V1.4\X64\RELEASE\VC141.PDB
^C:\USERS\BEN\DOCUMENTS\BENJAMIN_GRAY_SET09117\CHECKERS V1.4\CHECKERS_V1.4\CHECKERS_V1.4\CHECKERSVARS.CPP
C:\USERS\BEN\DOCUMENTS\BENJAMIN_GRAY_SET09117\CHECKERS V1.4\CHECKERS_V1.4\CHECKERS_V1.4\X64\RELEASE\VC141.PDB
^C:\USERS\BEN\DOCUMENTS\BENJAMIN_GRAY_SET09117\CHECKERS V1.4\CHECKERS_V1.4\CHECKERS_V1.4\ERROR.CPP
C:\USERS\BEN\DOCUMENTS\BENJAMIN_GRAY_SET09117\CHECKERS V1.4\CHECKERS_V1.4\CHECKERS_V1.4\X64\RELEASE\VC141.PDB
^C:\USERS\BEN\DOCUMENTS\BENJAMIN_GRAY_SET09117\CHECKERS V1.4\CHECKERS_V1.4\CHECKERS_V1.4\FUNCTIONS.CPP
C:\USERS\BEN\DOCUMENTS\BENJAMIN_GRAY_SET09117\CHECKERS V1.4\CHECKERS_V1.4\CHECKERS_V1.4\X64\RELEASE\VC141.PDB
^C:\USERS\BEN\DOCUMENTS\BENJAMIN_GRAY_SET09117\CHECKERS V1.4\CHECKERS_V1.4\CHECKERS_V1.4\SQUARE.CPP
C:\USERS\BEN\DOCUMENTS\BENJAMIN_GRAY_SET09117\CHECKERS V1.4\CHECKERS_V1.4\CHECKERS_V1.4\X64\RELEASE\VC141.PDB
