^C:\USERS\BEN\DOCUMENTS\BENJAMIN_GRAY_SET09117\CHECKERS V1.4\CHECKERS_V1.4\CHECKERS_V1.4\DEBUG\AI.OBJ|C:\USERS\BEN\DOCUMENTS\BENJAMIN_GRAY_SET09117\CHECKERS V1.4\CHECKERS_V1.4\CHECKERS_V1.4\DEBUG\CHECKERSBOARD.OBJ|C:\USERS\BEN\DOCUMENTS\BENJAMIN_GRAY_SET09117\CHECKERS V1.4\CHECKERS_V1.4\CHECKERS_V1.4\DEBUG\CHECKERSVARS.OBJ|C:\USERS\BEN\DOCUMENTS\BENJAMIN_GRAY_SET09117\CHECKERS V1.4\CHECKERS_V1.4\CHECKERS_V1.4\DEBUG\ERROR.OBJ|C:\USERS\BEN\DOCUMENTS\BENJAMIN_GRAY_SET09117\CHECKERS V1.4\CHECKERS_V1.4\CHECKERS_V1.4\DEBUG\FUNCTIONS.OBJ|C:\USERS\BEN\DOCUMENTS\BENJAMIN_GRAY_SET09117\CHECKERS V1.4\CHECKERS_V1.4\CHECKERS_V1.4\DEBUG\MAIN.OBJ|C:\USERS\BEN\DOCUMENTS\BENJAMIN_GRAY_SET09117\CHECKERS V1.4\CHECKERS_V1.4\CHECKERS_V1.4\DEBUG\SQUARE.OBJ|C:\USERS\BEN\DOCUMENTS\BENJAMIN_GRAY_SET09117\CHECKERS V1.4\CHECKERS_V1.4\CHECKERS_V1.4\DEBUG\STDAFX.OBJ
C:\USERS\BEN\DOCUMENTS\BENJAMIN_GRAY_SET09117\CHECKERS V1.4\CHECKERS_V1.4\DEBUG\CHECKERS_V1.4.EXE
C:\USERS\BEN\DOCUMENTS\BENJAMIN_GRAY_SET09117\CHECKERS V1.4\CHECKERS_V1.4\DEBUG\CHECKERS_V1.4.ILK
C:\USERS\BEN\DOCUMENTS\BENJAMIN_GRAY_SET09117\CHECKERS V1.4\CHECKERS_V1.4\DEBUG\CHECKERS_V1.4.PDB
