^C:\USERS\BEN\DOCUMENTS\BENJAMIN_GRAY_SET09117\CHECKERS V1.4\CHECKERS_V1.4\CHECKERS_V1.4\X64\DEBUG\AI.OBJ|C:\USERS\BEN\DOCUMENTS\BENJAMIN_GRAY_SET09117\CHECKERS V1.4\CHECKERS_V1.4\CHECKERS_V1.4\X64\DEBUG\CHECKERSBOARD.OBJ|C:\USERS\BEN\DOCUMENTS\BENJAMIN_GRAY_SET09117\CHECKERS V1.4\CHECKERS_V1.4\CHECKERS_V1.4\X64\DEBUG\CHECKERSVARS.OBJ|C:\USERS\BEN\DOCUMENTS\BENJAMIN_GRAY_SET09117\CHECKERS V1.4\CHECKERS_V1.4\CHECKERS_V1.4\X64\DEBUG\ERROR.OBJ|C:\USERS\BEN\DOCUMENTS\BENJAMIN_GRAY_SET09117\CHECKERS V1.4\CHECKERS_V1.4\CHECKERS_V1.4\X64\DEBUG\FUNCTIONS.OBJ|C:\USERS\BEN\DOCUMENTS\BENJAMIN_GRAY_SET09117\CHECKERS V1.4\CHECKERS_V1.4\CHECKERS_V1.4\X64\DEBUG\MAIN.OBJ|C:\USERS\BEN\DOCUMENTS\BENJAMIN_GRAY_SET09117\CHECKERS V1.4\CHECKERS_V1.4\CHECKERS_V1.4\X64\DEBUG\SQUARE.OBJ|C:\USERS\BEN\DOCUMENTS\BENJAMIN_GRAY_SET09117\CHECKERS V1.4\CHECKERS_V1.4\CHECKERS_V1.4\X64\DEBUG\STDAFX.OBJ
C:\WINDOWS\GLOBALIZATION\SORTING\SORTDEFAULT.NLS
C:\PROGRAM FILES (X86)\WINDOWS KITS\10\LIB\10.0.15063.0\UM\X64\KERNEL32.LIB
C:\PROGRAM FILES (X86)\WINDOWS KITS\10\LIB\10.0.15063.0\UM\X64\USER32.LIB
C:\PROGRAM FILES (X86)\WINDOWS KITS\10\LIB\10.0.15063.0\UM\X64\GDI32.LIB
C:\PROGRAM FILES (X86)\WINDOWS KITS\10\LIB\10.0.15063.0\UM\X64\WINSPOOL.LIB
C:\PROGRAM FILES (X86)\WINDOWS KITS\10\LIB\10.0.15063.0\UM\X64\COMDLG32.LIB
C:\PROGRAM FILES (X86)\WINDOWS KITS\10\LIB\10.0.15063.0\UM\X64\ADVAPI32.LIB
C:\PROGRAM FILES (X86)\WINDOWS KITS\10\LIB\10.0.15063.0\UM\X64\SHELL32.LIB
C:\PROGRAM FILES (X86)\WINDOWS KITS\10\LIB\10.0.15063.0\UM\X64\OLE32.LIB
C:\PROGRAM FILES (X86)\WINDOWS KITS\10\LIB\10.0.15063.0\UM\X64\OLEAUT32.LIB
C:\PROGRAM FILES (X86)\WINDOWS KITS\10\LIB\10.0.15063.0\UM\X64\UUID.LIB
C:\PROGRAM FILES (X86)\WINDOWS KITS\10\LIB\10.0.15063.0\UM\X64\ODBC32.LIB
C:\PROGRAM FILES (X86)\WINDOWS KITS\10\LIB\10.0.15063.0\UM\X64\ODBCCP32.LIB
C:\USERS\BEN\DOCUMENTS\BENJAMIN_GRAY_SET09117\CHECKERS V1.4\CHECKERS_V1.4\CHECKERS_V1.4\X64\DEBUG\AI.OBJ
C:\USERS\BEN\DOCUMENTS\BENJAMIN_GRAY_SET09117\CHECKERS V1.4\CHECKERS_V1.4\CHECKERS_V1.4\X64\DEBUG\CHECKERSBOARD.OBJ
C:\USERS\BEN\DOCUMENTS\BENJAMIN_GRAY_SET09117\CHECKERS V1.4\CHECKERS_V1.4\CHECKERS_V1.4\X64\DEBUG\MAIN.OBJ
C:\USERS\BEN\DOCUMENTS\BENJAMIN_GRAY_SET09117\CHECKERS V1.4\CHECKERS_V1.4\CHECKERS_V1.4\X64\DEBUG\CHECKERSVARS.OBJ
C:\USERS\BEN\DOCUMENTS\BENJAMIN_GRAY_SET09117\CHECKERS V1.4\CHECKERS_V1.4\CHECKERS_V1.4\X64\DEBUG\ERROR.OBJ
C:\USERS\BEN\DOCUMENTS\BENJAMIN_GRAY_SET09117\CHECKERS V1.4\CHECKERS_V1.4\CHECKERS_V1.4\X64\DEBUG\FUNCTIONS.OBJ
C:\USERS\BEN\DOCUMENTS\BENJAMIN_GRAY_SET09117\CHECKERS V1.4\CHECKERS_V1.4\CHECKERS_V1.4\X64\DEBUG\SQUARE.OBJ
C:\USERS\BEN\DOCUMENTS\BENJAMIN_GRAY_SET09117\CHECKERS V1.4\CHECKERS_V1.4\CHECKERS_V1.4\X64\DEBUG\STDAFX.OBJ
C:\PROGRAM FILES (X86)\MICROSOFT VISUAL STUDIO\2017\ENTERPRISE\VC\TOOLS\MSVC\14.11.25503\LIB\X64\MSVCPRTD.LIB
C:\PROGRAM FILES (X86)\MICROSOFT VISUAL STUDIO\2017\ENTERPRISE\VC\TOOLS\MSVC\14.11.25503\LIB\X64\MSVCRTD.LIB
C:\PROGRAM FILES (X86)\MICROSOFT VISUAL STUDIO\2017\ENTERPRISE\VC\TOOLS\MSVC\14.11.25503\LIB\X64\OLDNAMES.LIB
C:\PROGRAM FILES (X86)\MICROSOFT VISUAL STUDIO\2017\ENTERPRISE\VC\TOOLS\MSVC\14.11.25503\LIB\X64\VCRUNTIMED.LIB
C:\PROGRAM FILES (X86)\WINDOWS KITS\10\LIB\10.0.15063.0\UCRT\X64\UCRTD.LIB
C:\PROGRAM FILES (X86)\WINDOWS KITS\10\BIN\10.0.15063.0\X86\RC.EXE
C:\PROGRAM FILES (X86)\MICROSOFT VISUAL STUDIO\2017\ENTERPRISE\VC\TOOLS\MSVC\14.11.25503\BIN\HOSTX86\X86\CVTRES.EXE
C:\WINDOWS\SYSTEM32\TZRES.DLL
