^C:\USERS\BEN\DOCUMENTS\BENJAMIN_GRAY_SET09117\CHECKERS V1.4\CHECKERS_V1.4\CHECKERS_V1.4\STDAFX.CPP
/c /Zi /nologo /W3 /WX- /diagnostics:classic /sdl /O2 /Oi /Oy- /GL /D WIN32 /D NDEBUG /D _CONSOLE /D _UNICODE /D UNICODE /Gm- /EHsc /MD /GS /Gy /fp:precise /Zc:wchar_t /Zc:forScope /Zc:inline /Yc"stdafx.h" /Fp"RELEASE\CHECKERS_V1.4.PCH" /Fo"RELEASE\\" /Fd"RELEASE\VC141.PDB" /Gd /TP /analyze- C:\USERS\BEN\DOCUMENTS\BENJAMIN_GRAY_SET09117\CHECKERS V1.4\CHECKERS_V1.4\CHECKERS_V1.4\STDAFX.CPP
^C:\USERS\BEN\DOCUMENTS\BENJAMIN_GRAY_SET09117\CHECKERS V1.4\CHECKERS_V1.4\CHECKERS_V1.4\CHECKERSBOARD.CPP
/c /Zi /nologo /W3 /WX- /diagnostics:classic /sdl /O2 /Oi /Oy- /GL /D WIN32 /D NDEBUG /D _CONSOLE /D _UNICODE /D UNICODE /Gm- /EHsc /MD /GS /Gy /fp:precise /Zc:wchar_t /Zc:forScope /Zc:inline /Yu"stdafx.h" /Fp"RELEASE\CHECKERS_V1.4.PCH" /Fo"RELEASE\\" /Fd"RELEASE\VC141.PDB" /Gd /TP /analyze- C:\USERS\BEN\DOCUMENTS\BENJAMIN_GRAY_SET09117\CHECKERS V1.4\CHECKERS_V1.4\CHECKERS_V1.4\CHECKERSBOARD.CPP
^C:\USERS\BEN\DOCUMENTS\BENJAMIN_GRAY_SET09117\CHECKERS V1.4\CHECKERS_V1.4\CHECKERS_V1.4\ERROR.CPP
/c /Zi /nologo /W3 /WX- /diagnostics:classic /sdl /O2 /Oi /Oy- /GL /D WIN32 /D NDEBUG /D _CONSOLE /D _UNICODE /D UNICODE /Gm- /EHsc /MD /GS /Gy /fp:precise /Zc:wchar_t /Zc:forScope /Zc:inline /Yu"stdafx.h" /Fp"RELEASE\CHECKERS_V1.4.PCH" /Fo"RELEASE\\" /Fd"RELEASE\VC141.PDB" /Gd /TP /analyze- C:\USERS\BEN\DOCUMENTS\BENJAMIN_GRAY_SET09117\CHECKERS V1.4\CHECKERS_V1.4\CHECKERS_V1.4\ERROR.CPP
^C:\USERS\BEN\DOCUMENTS\BENJAMIN_GRAY_SET09117\CHECKERS V1.4\CHECKERS_V1.4\CHECKERS_V1.4\SQUARE.CPP
/c /Zi /nologo /W3 /WX- /diagnostics:classic /sdl /O2 /Oi /Oy- /GL /D WIN32 /D NDEBUG /D _CONSOLE /D _UNICODE /D UNICODE /Gm- /EHsc /MD /GS /Gy /fp:precise /Zc:wchar_t /Zc:forScope /Zc:inline /Yu"stdafx.h" /Fp"RELEASE\CHECKERS_V1.4.PCH" /Fo"RELEASE\\" /Fd"RELEASE\VC141.PDB" /Gd /TP /analyze- C:\USERS\BEN\DOCUMENTS\BENJAMIN_GRAY_SET09117\CHECKERS V1.4\CHECKERS_V1.4\CHECKERS_V1.4\SQUARE.CPP
^C:\USERS\BEN\DOCUMENTS\BENJAMIN_GRAY_SET09117\CHECKERS V1.4\CHECKERS_V1.4\CHECKERS_V1.4\AI.CPP
/c /Zi /nologo /W3 /WX- /diagnostics:classic /sdl /O2 /Oi /Oy- /GL /D WIN32 /D NDEBUG /D _CONSOLE /D _UNICODE /D UNICODE /Gm- /EHsc /MD /GS /Gy /fp:precise /Zc:wchar_t /Zc:forScope /Zc:inline /Yu"stdafx.h" /Fp"RELEASE\CHECKERS_V1.4.PCH" /Fo"RELEASE\\" /Fd"RELEASE\VC141.PDB" /Gd /TP /analyze- C:\USERS\BEN\DOCUMENTS\BENJAMIN_GRAY_SET09117\CHECKERS V1.4\CHECKERS_V1.4\CHECKERS_V1.4\AI.CPP
^C:\USERS\BEN\DOCUMENTS\BENJAMIN_GRAY_SET09117\CHECKERS V1.4\CHECKERS_V1.4\CHECKERS_V1.4\CHECKERSVARS.CPP
/c /Zi /nologo /W3 /WX- /diagnostics:classic /sdl /O2 /Oi /Oy- /GL /D WIN32 /D NDEBUG /D _CONSOLE /D _UNICODE /D UNICODE /Gm- /EHsc /MD /GS /Gy /fp:precise /Zc:wchar_t /Zc:forScope /Zc:inline /Yu"stdafx.h" /Fp"RELEASE\CHECKERS_V1.4.PCH" /Fo"RELEASE\\" /Fd"RELEASE\VC141.PDB" /Gd /TP /analyze- C:\USERS\BEN\DOCUMENTS\BENJAMIN_GRAY_SET09117\CHECKERS V1.4\CHECKERS_V1.4\CHECKERS_V1.4\CHECKERSVARS.CPP
^C:\USERS\BEN\DOCUMENTS\BENJAMIN_GRAY_SET09117\CHECKERS V1.4\CHECKERS_V1.4\CHECKERS_V1.4\MAIN.CPP
/c /Zi /nologo /W3 /WX- /diagnostics:classic /sdl /O2 /Oi /Oy- /GL /D WIN32 /D NDEBUG /D _CONSOLE /D _UNICODE /D UNICODE /Gm- /EHsc /MD /GS /Gy /fp:precise /Zc:wchar_t /Zc:forScope /Zc:inline /Yu"stdafx.h" /Fp"RELEASE\CHECKERS_V1.4.PCH" /Fo"RELEASE\\" /Fd"RELEASE\VC141.PDB" /Gd /TP /analyze- C:\USERS\BEN\DOCUMENTS\BENJAMIN_GRAY_SET09117\CHECKERS V1.4\CHECKERS_V1.4\CHECKERS_V1.4\MAIN.CPP
^C:\USERS\BEN\DOCUMENTS\BENJAMIN_GRAY_SET09117\CHECKERS V1.4\CHECKERS_V1.4\CHECKERS_V1.4\FUNCTIONS.CPP
/c /Zi /nologo /W3 /WX- /diagnostics:classic /sdl /O2 /Oi /Oy- /GL /D WIN32 /D NDEBUG /D _CONSOLE /D _UNICODE /D UNICODE /Gm- /EHsc /MD /GS /Gy /fp:precise /Zc:wchar_t /Zc:forScope /Zc:inline /Yu"stdafx.h" /Fp"RELEASE\CHECKERS_V1.4.PCH" /Fo"RELEASE\\" /Fd"RELEASE\VC141.PDB" /Gd /TP /analyze- C:\USERS\BEN\DOCUMENTS\BENJAMIN_GRAY_SET09117\CHECKERS V1.4\CHECKERS_V1.4\CHECKERS_V1.4\FUNCTIONS.CPP
