^C:\Users\Ben\Documents\benjamin_gray_set09117\Source Code\Checkers V1.4\Checkers_V1.4\Checkers_V1.4\Checkers_V1.4.vcxproj
C:\Users\Ben\Documents\benjamin_gray_set09117\Source Code\Checkers V1.4\Checkers_V1.4\Release\Checkers_V1.4.ipdb
C:\Users\Ben\Documents\benjamin_gray_set09117\Source Code\Checkers V1.4\Checkers_V1.4\Release\Checkers_V1.4.iobj
^C:\Users\Ben\Documents\benjamin_gray_set09117\Source Code\Checkers V1.4\Checkers_V1.4\Checkers_V1.4\Checkers_V1.4.vcxproj
C:\Users\Ben\Documents\benjamin_gray_set09117\Source Code\Checkers V1.4\Checkers_V1.4\Release\Checkers_V1.4.ipdb
C:\Users\Ben\Documents\benjamin_gray_set09117\Source Code\Checkers V1.4\Checkers_V1.4\Release\Checkers_V1.4.iobj
^C:\Users\Ben\Documents\benjamin_gray_set09117\Source Code\Checkers V1.4\Checkers_V1.4\Checkers_V1.4\Checkers_V1.4.vcxproj
C:\Users\Ben\Documents\benjamin_gray_set09117\Source Code\Checkers V1.4\Checkers_V1.4\Release\Checkers_V1.4.ipdb
C:\Users\Ben\Documents\benjamin_gray_set09117\Source Code\Checkers V1.4\Checkers_V1.4\Release\Checkers_V1.4.iobj
^C:\Users\Ben\Documents\benjamin_gray_set09117\Source Code\Checkers V1.4\Checkers_V1.4\Checkers_V1.4\Checkers_V1.4.vcxproj
C:\Users\Ben\Documents\benjamin_gray_set09117\Source Code\Checkers V1.4\Checkers_V1.4\Release\Checkers_V1.4.ipdb
C:\Users\Ben\Documents\benjamin_gray_set09117\Source Code\Checkers V1.4\Checkers_V1.4\Release\Checkers_V1.4.iobj
